P1 C 10 KB
P1 P 0
P2 C 10 KB
P1 I 1
P2 P 0
P2 R 1000
P2 W 1000 50
P2 I 2
P1 D
P1 R 0
P1 P 1
P1 P 1024
P1 P 2048
P1 P 2047
P1 P 4095
P1 P 4096
P1 P 8191
P1 P 8192
P1 W 8192 100
P1 R 0
P2 D
P2 P 4000
P2 W 1024 30
P2 T
P1 P 1000
P1 T
P3 C 10 KB
P3 P 100000